19-1Ipr-B5 0.00 0.0000 17-f1ay-S5 28.00 0.8079 2Hun-85 66.01 3.0625
19-flpr-85 0.22 0.0013 17-f1ay-85 28.22 0.8200 2Hun-85 66.22 3.0772
22-Rpr-85 3.0~ 0.0131 ZO-f1ay-85 31.01 0.9426 25-Jun-85 67.02 3.1631
22-flpr-85 3. Ii 0.0135 20-f1ay-85 31.25 0.9581 26-Jun-85 68.05 3.2110
22-Apr-85 3.22 0.0139 21-f1ay-85 32.02 0.9951 27-Jun-85 69.04 3.3907
23-flpr-85 tOZ 0.0185 21-f1ay-85 32.23 1.0072 28-Jun-85 70.0~ 3. ~782
Z3-Apr-85 t09 0.0189 22-f1ay-85 33.05 1.0157 OHuI-85 73.03 3.6213
23-Apr-85 i.16 0.0193 2Hlay-85 33.25 1.0571 02-Jul-85 7i,01 3.6692
23-flpr-85 i,23 0.0203 23-f1ay-85 3i.03 1.0995 83-M-85 75.04 3.7734
21-Apr-85 5.02 0.0299 2i-f1ay-85 35.01 1.1489 08-Jul-85 80.06 3.8819
21-Apr-85 5.11 0.0310 21-f1ay-8S 35.21 1.16ii 09-JuI-85 81.09 1.0293
2Hpr-B5 5.21 0.0326 2B-tlay-B5 39.00 1.3397 10-JuI-85 82.03 i,IOB2
Z5-Apr-85 6.01 o.om 28-f1ay-B5 39.23 1.3531 1HuI-85 B3.04 1.1720
2S-Rpr-85 6.10 0.Oi59 29-tlay-B5 10.00 1.10H 12-JuI-B5 8i, Ii t2769
2S-Apr-B5 6.22 0.0502 29-f1ay-B5 10.23 l.i193 15-Jul-B5 B7.03 i,~631
26-Apr-B5 7.01 0.0731 30-May-85 41.01 1. ~65~ 16-JuI-B5 B8.01 1. 5269
26-Apr-B5 7.11 0.0766 3O-f1ay-85 i1.22 1.~804 17-Jul-85 89.03 i, 5898
26-Apr-85 7.23 0.0806 31-f1ay-85 i2.03 1. 5321 18-JuI-85 90.01 1.6485
Z8-Rpr-85 9.26 0.1280 31-f1ay-85 12.23 1.5~51 19-Jul-85 91.00 4.7068
29-Rpr-85 10.09 0.1629 03-Jun-B5 i5.00 1.6952 22-JuI-85 91.03 U559
29-Rpr-85 10.25 0.1678 03-Jun-85 ~5.22 1.7096 23-JuI-85 95.01 1.B676
30-Rpr-85 11.00 0.1910 OHun-85 16.02 1.7598 21-Jul-85 96.02 1.9219
30-Rpr-85 11.22 0.1982 0~-Jun-95 46.23 1.7730 25-JuI-85 97.01 i,9766
01-May-85 11.99 0.2216 05-Jun-85 ~7. 05 1. 8220 26-JuI-85 98.03 1.9803
01-f1ay-85 12.22 0.2311 05-Jun-85 ~7.23 1.83~0 29-JuI-85 101. 03 5.0333
02-May-85 12.98 0.2567 06-Jun-B5 18.20 1. 8938 30-JuI-85 102.05 5.0918
02-f1ay-85 13.23 0.2782 07-Jun-85 19.02 1.9160 OJ-Rug-85 1Oi, 01 5.1869
03-f1ay-85 13.99 0.3076 07-Jun-85 19.22 1.9593 02-Rug-8S 105.00 5.2819
03-f1ay-85 H.21 0.3160 10-Jun-85 52.01 2.1353 05-Aug-85 100.02 5.1726
06-May-B5 17.03 0.3617 10-Jun-85 52.21 2.1530 06-Rug-85 109.01 5.5817
06-f1ay-85 17.20 o.ms IHun-B5 53.01 2.2061 07-Rug-85 11 O. 01 5.6677
07-May-85 17.98 O. i030 12-Jun-85 5i,02 2.2700 OB-Rug-8S 111. 01 5.7532
07-May-B5 18.24 0.m5 13-Jun-85 55.01 2.3383 09-Rug-85 112.01 5.8253
08-f1ay-85 18.99 0.~515 13-Jun-85 55.23 2.3533 12-Rug-85 115.02 6.0150
OB-May-85 19.23 0.1580 14-Jun-85 56,02 2. ~023 IHug-85 116.01 6.1296
09-May-B5 19.98 O. i834 lHun-85 56.Z~ 2.1211 1Hug-85 117.00 6.2161
09-f1ay-85 20.21 0.1927 17-Jun-85 59.02 2.5972 15-Aug-85 11 8.05 6.2771
10-f1ay-85 20.99 0.5207 17-Jun-85 59.21 2.6166 16-Rug-85 119.00 6.3721
10-f1ay-85 21.21 0.5301 18-Jun-85 60.01 2.6688 19-Rug-85 122.02 6.6117
13-f1ay-85 2t Ii 0.6357 18-Jun-85 60.22 2.6820 20-Rug-85 123.01 6.6909
1~-f1ay-85 2'1.99 0.6727 19-Jun-85 61.07 2.7133 21-Rug-85 121.01 6.7673
J, l1-tlay-85 25.23 0.6849 19-Jun-85 61.22 2. 75i5 22-Rug-85 125.08 6.8111
15-May-85 25.99 0.7203 20-Jun-85 62.05 2.8012 23-Rug-85 126.05 6.9167
15-May-85 26.22 0.7299 20-Jun-85 62.23 2.9173 26-Rug-85 129.02 7.1221
16-f1ay-85 26.99 0.7611 2Hun-85 63.11 2.8764 27-Rug-B5 130.02 7.1811
16-f1ay-85 27.21 0.7732 21-Jun-85 63.21 2.8863 29-Rug-B5 131.03 7.2527
2Hug-a5 132.02 7.3255 04-Hov-a5 199.02 11.7706 13-1an-86 269.12 16.3550
3D-Rug-aS 133.02 7.3932 05-Hov-85 200.04 I1.B356 1Han-B6 270.07 16.4108
03-Sep-as 137.04 7.6120 06-Hov-85 201. 04 11.9002 15-1an-86 271.08 16,4657
04-Sep-85 13B.02 7.7741 07-Hov-85 202.03 11.9593 16-Jan-86 272.13 16.5275
05-Sep-B5 139.00 7.8524 08-Nov-a5 203.04 12.0156 17-1ao-86 273.10 16.5831
. 06-Sep-B5 140.00 7.9358 l1-Hov-85 206.01 12.1051 20-Jan-86 276.06 16.7725
09-Sep-85 143.02 a.0924 12-Nov-85 207.04 12.2554 21-Jao-86 277.07 16.8332
10-Sep-85 113.99 8.2461 13-Hov-85 208.04 12.3432 22-1an-86 278.08 16. B940
l1-Sep-S5 145.04 B.2909 14-Nov-B5 209. OS 12.4321 23-Jan-86 279.16 16.9576
12-Sep-B5 146.03 B.3923 15-Hov-8s 210.05 12.5124 2Hao-B6 280.00 17.0081
13-Sep-8s 147.03 8.4610 18-Hov-85 213.03 12.7044 27-1ao-86 282.99 17.2086
16-Sep-B5 150.04 B.66B4 19-Nov-8s 214. OS 12.7654 2B-1an-B6 284.07 17.2549
17-Sep-85 151. 05 B.7332 20-Hov-Bs 215.03 12.8217 29-1ao-86 2as.07 17.3183
18-Sep-85 151.99 8.7965 21-Hov-85 216.06 12.8724 30-Jao-86 286.13 17.3818
19-5ep-85 153.22 8.8765 22-Nov-8s 217.17 12.9490 31-1ao-86 287.09 17.4381
20-Sep-85 154.01 B.9276 25-Nou-85 220.07 13.1803 OHeb-86 290.14 17.6300
23-Sep-8s 157.00 9.0668 26-Hou-Bs 221. OS 13.2783 OHeb-B6 291. OS 17.6895
24-Sep-85 158.02 9.1793 Z7-Hou-8s 222.05 13.3731 OS-feb-86 292.09 17.7507
25-Sep-8s 159.00 9.2394 02-0ec-8S 227.00 13.4011 06-feb-86 293.13 17.8233
26-Sep-Bs 160.01 9.2970 02-0ec-Bs 227. DB 13.6149 OHeb-86 294.07 17.8856
27-Sep-8s 161.02 9.3443 OHec-B5 2Z8.03 13.6832 10-feb-86 297.12 18.0877
30-Sep-BS 164. 02 9.4B86 OHec-B5 229.07 13.7446 l1-feb-86 298.06 18.1466
01-0ct-85 165.16 9.sB4s Os-Oec-85 230.11 13.8026 12-feb-86 299.06 18.2099
02-0ct-8s 166.01 9.6381 06-0ec-8s 231.11 13.8614 1Heb-86 300.14 18.2798
03-0ct-Bs 167.11 9.6934 09-0ec-8s 234. 08 14. 0370 lHeb-86 301.06 18.3442
04-0ct-8s 168.00 9.7165 10-0ec-8S 235.08 14.0933 1Heb-86 304.07 18.6200
07-0ct-Bs 171. 05 9.9358 11-0ec-85 236.07 14.1586 18-feb-86 305.07 18.6981
08-0ct-85 172.02 10.0245 12-0ec-Bs 237.09 11.2210 1Heb-86 306.08 18.7614
09-0ct-8s 173. 01 10.1001 13-0ec-85 238.08 lU843 20-feb-86 307.09 18.8270
10-Oct-Bs 174.01 10.1704 16-0ec-8s 241.10 14.5387 21-feb-86 308.15 18.8873
11-Oct-8s 175.06 10.2590 17-0ec-B5 242.06 14. 6086 2Heb-86 31'1.17 19.2545
14-0et-85 178.02 10.4567 l8-Dec-8s 243. 06 14.6802 28-feb-86 315.11 19.3045
15-0ct-85 179.04 10.SZ01 19-Dec-B5 241. 07 14.7458 04-Mar-86 319.10 19.5415
16-0ct-85 180.04 10.5912 20-Dec-aS 245.08 14.8120 06-Na,"-86 32LI7 19.6596
17-0ct-85 181.01 10.6546 23-0ec-85 248.36 1S. D40B
l8-0ct-8s 182.03 10.7198 26-0ec-8s 251.09 15.2208
Zl-0ct-85 185. OS 10.9056 27-0ec-8s 25Z.21 15.2945
Z2-0et-8s 186.06 10.9701 30-Dec-85 255.09 15.4830
23-0ct-85 187.03 11. 0198 31-Dec-85 ZS5.98 15.5419
ZHct-85 188.03 11. 0853 02-Jan-86 258.09 1S. 6760
25-0et-05 189.04 11.1487 03-Jan-B6 259.06 15.7458
28-0et-8S 192.01 11.29'14 06-Jao-B6 262.10 15.9364
29-0ct-8s 193.07 11.3969 07-Jao-86 263.09 1S. 9941
30-0et-85 194. 03 11. 4606 08-Jao-86 264. 08 16.0602
31-Oct-8s 195.05 11.5275 09-1an-86 26S.06 16.1257
01-Nov-8s 196.04 11. 5919 10-Jan-86 266.05 16.1819
