borehole,fluid,position,perm (m^2),porosity
52,brine,1.25,5.70E-018,0.01
53,brine,1.25,5.70E-018,0.01
54,brine,1.5,1.50E-019,0.005
56,brine,2,1.80E-020,0.001
58,brine,3,4.50E-021,0.001
60,brine,4,5.50E-021,0.001
50,gas,1.25,9.00E-016,0.01
51,gas,1.25,5.00E-018,0.01
55,gas,1.5,2.00E-019,0.005
57,gas,2,3.00E-021,0.001
59,gas,3,5.00E-021,0.001
